…
``` r
results %>% count(publisher, sort=TRUE) 
```

    ## # A tibble: 112 x 2
    ##    publisher                                                    n
    ##    <chr>                                                    <int>
    ##  1 IEEE                                                       398
    ##  2 Elsevier BV                                                192
    ##  3 MDPI AG                                                    117
    ##  4 Institute of Electrical and Electronics Engineers (IEEE)   109
    ##  5 Springer Science and Business Media LLC                     73
    ##  6 ACM Press                                                   62
    ##  7 Springer International Publishing                           53
    ##  8 Wiley                                                       35
    ##  9 IOP Publishing                                              32
    ## 10 SPIE                                                        26
    ## # … with 102 more rows
…
